Ejercicios de estadística descriptiva multivariante
…
df

# A tibble: 30 × 4
   Ventas Publicidad Satisfaccion_cliente Marca
    <dbl>      <dbl>                <dbl> <dbl>
 1    150         30                  8.2     1
 2    200         40                  9.1     2
 3    180         35                  8.7     3
 4    120         25                  7.5     1
 5    170         32                  8       2
 6    140         28                  7.9     3
 7    160         30                  8.5     1
 8    210         42                  9.3     2
 9    130         27                  7.8     3
10    155         30                  8.1     1
# ℹ 20 more rows
…
